<mxfile host="app.diagrams.net" modified="2020-12-24T19:11:21.254Z" agent="5.0 (Windows NT 10.0; Win64; x64) AppleWebKit/537.36 (KHTML, like Gecko) Chrome/87.0.4280.88 Safari/537.36" etag="4CC64tQuAf8psOJRE3vJ" version="14.1.2" type="gitlab">
  <diagram name="Page-1" id="e7e014a7-5840-1c2e-5031-d8a46d1fe8dd">
    <mxGraphModel dx="1483" dy="840" grid="1" gridSize="10" guides="1" tooltips="1" connect="1" arrows="1" fold="1" page="1" pageScale="1" pageWidth="1169" pageHeight="826" background="#ffffff" math="0" shadow="0">
      <root>
        <mxCell id="0" />
        <mxCell id="1" parent="0" />
        <mxCell id="eiah1D3wEuXbNWKUTs9p-41" value="" style="ellipse;shape=startState;fillColor=#000000;strokeColor=#ff0000;" vertex="1" parent="1">
          <mxGeometry x="670" y="102" width="30" height="30" as="geometry" />
        </mxCell>
        <mxCell id="eiah1D3wEuXbNWKUTs9p-43" value="Авторизація" style="" vertex="1" parent="1">
          <mxGeometry x="470" y="142" width="110" height="50" as="geometry" />
        </mxCell>
        <mxCell id="eiah1D3wEuXbNWKUTs9p-44" value="" style="edgeStyle=elbowEdgeStyle;elbow=horizontal;verticalAlign=bottom;endArrow=open;endSize=8;strokeColor=#FF0000;endFill=1;rounded=0;exitX=0;exitY=0.5;exitDx=0;exitDy=0;entryX=1;entryY=0.5;entryDx=0;entryDy=0;" edge="1" parent="1" source="eiah1D3wEuXbNWKUTs9p-41" target="eiah1D3wEuXbNWKUTs9p-43">
          <mxGeometry x="435" y="-126" as="geometry">
            <mxPoint x="610.5714285714287" y="114" as="targetPoint" />
            <mxPoint x="610" y="74" as="sourcePoint" />
          </mxGeometry>
        </mxCell>
        <mxCell id="eiah1D3wEuXbNWKUTs9p-45" value="Реєстрація" style="" vertex="1" parent="1">
          <mxGeometry x="800" y="142" width="110" height="50" as="geometry" />
        </mxCell>
        <mxCell id="eiah1D3wEuXbNWKUTs9p-46" value="" style="edgeStyle=elbowEdgeStyle;elbow=horizontal;verticalAlign=bottom;endArrow=open;endSize=8;strokeColor=#FF0000;endFill=1;rounded=0;exitX=1;exitY=0.5;exitDx=0;exitDy=0;entryX=0;entryY=0.5;entryDx=0;entryDy=0;" edge="1" parent="1" target="eiah1D3wEuXbNWKUTs9p-45" source="eiah1D3wEuXbNWKUTs9p-41">
          <mxGeometry x="755" y="-126" as="geometry">
            <mxPoint x="930.5714285714287" y="114" as="targetPoint" />
            <mxPoint x="990" y="116.99999999999989" as="sourcePoint" />
          </mxGeometry>
        </mxCell>
        <mxCell id="eiah1D3wEuXbNWKUTs9p-47" value="Не зареєстрований" style="edgeStyle=elbowEdgeStyle;elbow=horizontal;align=left;verticalAlign=bottom;endArrow=open;endSize=8;strokeColor=#FF0000;exitX=1;exitY=1;endFill=1;rounded=0;entryX=0.5;entryY=1;exitDx=0;exitDy=0;entryDx=0;entryDy=0;" edge="1" parent="1" source="eiah1D3wEuXbNWKUTs9p-43" target="eiah1D3wEuXbNWKUTs9p-45">
          <mxGeometry x="-1" relative="1" as="geometry">
            <mxPoint x="460" y="378" as="targetPoint" />
            <Array as="points">
              <mxPoint x="690" y="214" />
            </Array>
            <mxPoint x="495" y="455.5" as="sourcePoint" />
          </mxGeometry>
        </mxCell>
        <mxCell id="eiah1D3wEuXbNWKUTs9p-48" value="" style="edgeStyle=elbowEdgeStyle;elbow=horizontal;verticalAlign=bottom;endArrow=open;endSize=8;strokeColor=#FF0000;endFill=1;rounded=0;entryX=0.5;entryY=0;entryDx=0;entryDy=0;exitX=0;exitY=0;exitDx=0;exitDy=0;" edge="1" parent="1" source="eiah1D3wEuXbNWKUTs9p-43" target="eiah1D3wEuXbNWKUTs9p-43">
          <mxGeometry x="445" y="-116" as="geometry">
            <mxPoint x="590" y="176.9999999999999" as="targetPoint" />
            <mxPoint x="525" y="54" as="sourcePoint" />
            <Array as="points">
              <mxPoint x="500" y="104" />
            </Array>
          </mxGeometry>
        </mxCell>
        <mxCell id="eiah1D3wEuXbNWKUTs9p-49" value="" style="edgeStyle=elbowEdgeStyle;elbow=horizontal;verticalAlign=bottom;endArrow=open;endSize=8;strokeColor=#FF0000;endFill=1;rounded=0;exitX=1;exitY=0;exitDx=0;exitDy=0;entryX=0.5;entryY=0;entryDx=0;entryDy=0;" edge="1" parent="1" source="eiah1D3wEuXbNWKUTs9p-45" target="eiah1D3wEuXbNWKUTs9p-45">
          <mxGeometry x="455" y="-106" as="geometry">
            <mxPoint x="870" y="134" as="targetPoint" />
            <mxPoint x="690" y="136.9999999999999" as="sourcePoint" />
            <Array as="points">
              <mxPoint x="880" y="104" />
            </Array>
          </mxGeometry>
        </mxCell>
        <mxCell id="eiah1D3wEuXbNWKUTs9p-50" value="Адміністратор?" style="rhombus;fillColor=#ffffc0;strokeColor=#ff0000;" vertex="1" parent="1">
          <mxGeometry x="607.5" y="264" width="155" height="50" as="geometry" />
        </mxCell>
        <mxCell id="eiah1D3wEuXbNWKUTs9p-51" value="" style="edgeStyle=elbowEdgeStyle;elbow=horizontal;align=left;verticalAlign=bottom;endArrow=open;endSize=8;strokeColor=#FF0000;exitX=0.5;exitY=1;endFill=1;rounded=0;entryX=0.5;entryY=0;exitDx=0;exitDy=0;entryDx=0;entryDy=0;" edge="1" parent="1" source="eiah1D3wEuXbNWKUTs9p-43" target="eiah1D3wEuXbNWKUTs9p-50">
          <mxGeometry x="-1" relative="1" as="geometry">
            <mxPoint x="450" y="264" as="targetPoint" />
            <Array as="points">
              <mxPoint x="485" y="296.5" />
            </Array>
            <mxPoint x="495" y="336.5" as="sourcePoint" />
          </mxGeometry>
        </mxCell>
        <mxCell id="eiah1D3wEuXbNWKUTs9p-52" value="" style="edgeStyle=elbowEdgeStyle;elbow=horizontal;align=left;verticalAlign=bottom;endArrow=open;endSize=8;strokeColor=#FF0000;exitX=0.75;exitY=1;endFill=1;rounded=0;exitDx=0;exitDy=0;entryX=0.5;entryY=0;entryDx=0;entryDy=0;" edge="1" parent="1" source="eiah1D3wEuXbNWKUTs9p-45" target="eiah1D3wEuXbNWKUTs9p-50">
          <mxGeometry x="-1" relative="1" as="geometry">
            <mxPoint x="890" y="384" as="targetPoint" />
            <Array as="points">
              <mxPoint x="883" y="284" />
            </Array>
            <mxPoint x="535" y="202" as="sourcePoint" />
          </mxGeometry>
        </mxCell>
        <mxCell id="eiah1D3wEuXbNWKUTs9p-53" value="Ні" style="edgeStyle=elbowEdgeStyle;elbow=horizontal;align=left;verticalAlign=top;endArrow=open;endSize=8;strokeColor=#FF0000;endFill=1;rounded=0;exitX=0;exitY=0.5;exitDx=0;exitDy=0;entryX=0.5;entryY=0;entryDx=0;entryDy=0;" edge="1" parent="1" source="eiah1D3wEuXbNWKUTs9p-50" target="eiah1D3wEuXbNWKUTs9p-56">
          <mxGeometry x="-1" relative="1" as="geometry">
            <mxPoint x="500" y="354" as="targetPoint" />
            <mxPoint x="620" y="304" as="sourcePoint" />
            <Array as="points">
              <mxPoint x="500" y="414" />
              <mxPoint x="500" y="344" />
            </Array>
          </mxGeometry>
        </mxCell>
        <mxCell id="eiah1D3wEuXbNWKUTs9p-54" value="Так" style="edgeStyle=elbowEdgeStyle;elbow=horizontal;align=left;verticalAlign=bottom;endArrow=open;endSize=8;strokeColor=#FF0000;exitX=1;exitY=0.5;endFill=1;rounded=0;exitDx=0;exitDy=0;entryX=0.5;entryY=0;entryDx=0;entryDy=0;" edge="1" parent="1" source="eiah1D3wEuXbNWKUTs9p-50" target="eiah1D3wEuXbNWKUTs9p-55">
          <mxGeometry x="-1" relative="1" as="geometry">
            <mxPoint x="880" y="354" as="targetPoint" />
            <Array as="points">
              <mxPoint x="880" y="334" />
            </Array>
            <mxPoint x="200" y="384" as="sourcePoint" />
          </mxGeometry>
        </mxCell>
        <mxCell id="eiah1D3wEuXbNWKUTs9p-55" value="Адміністрування даних" style="" vertex="1" parent="1">
          <mxGeometry x="810" y="344" width="140" height="40" as="geometry" />
        </mxCell>
        <mxCell id="eiah1D3wEuXbNWKUTs9p-56" value="Партнер?" style="rhombus;fillColor=#ffffc0;strokeColor=#ff0000;" vertex="1" parent="1">
          <mxGeometry x="427.5" y="372" width="155" height="50" as="geometry" />
        </mxCell>
        <mxCell id="eiah1D3wEuXbNWKUTs9p-57" value="Ні" style="edgeStyle=elbowEdgeStyle;elbow=horizontal;align=left;verticalAlign=top;endArrow=open;endSize=8;strokeColor=#FF0000;endFill=1;rounded=0;exitX=0;exitY=0.5;exitDx=0;exitDy=0;" edge="1" parent="1" source="eiah1D3wEuXbNWKUTs9p-56">
          <mxGeometry x="-1" relative="1" as="geometry">
            <mxPoint x="380" y="462" as="targetPoint" />
            <mxPoint x="440" y="412" as="sourcePoint" />
            <Array as="points">
              <mxPoint x="380" y="394" />
              <mxPoint x="320" y="452" />
            </Array>
          </mxGeometry>
        </mxCell>
        <mxCell id="eiah1D3wEuXbNWKUTs9p-58" value="Так" style="edgeStyle=elbowEdgeStyle;elbow=horizontal;align=left;verticalAlign=bottom;endArrow=open;endSize=8;strokeColor=#FF0000;exitX=1;exitY=0.5;endFill=1;rounded=0;exitDx=0;exitDy=0;entryX=0.5;entryY=0;entryDx=0;entryDy=0;" edge="1" parent="1" source="eiah1D3wEuXbNWKUTs9p-56" target="eiah1D3wEuXbNWKUTs9p-65">
          <mxGeometry x="-1" relative="1" as="geometry">
            <mxPoint x="700" y="452" as="targetPoint" />
            <Array as="points">
              <mxPoint x="700" y="442" />
            </Array>
            <mxPoint x="20" y="492" as="sourcePoint" />
          </mxGeometry>
        </mxCell>
        <mxCell id="eiah1D3wEuXbNWKUTs9p-65" value="Анонімізована статистика" style="" vertex="1" parent="1">
          <mxGeometry x="620" y="424" width="170" height="40" as="geometry" />
        </mxCell>
        <mxCell id="eiah1D3wEuXbNWKUTs9p-66" value="" style="ellipse;shape=endState;fillColor=#000000;strokeColor=#ff0000" vertex="1" parent="1">
          <mxGeometry x="700" y="694" width="30" height="30" as="geometry" />
        </mxCell>
        <mxCell id="eiah1D3wEuXbNWKUTs9p-67" value="Перегляд своєї статистика" style="" vertex="1" parent="1">
          <mxGeometry x="200" y="584" width="170" height="40" as="geometry" />
        </mxCell>
        <mxCell id="eiah1D3wEuXbNWKUTs9p-68" value="Додавання вимірювання" style="" vertex="1" parent="1">
          <mxGeometry x="410" y="584" width="170" height="40" as="geometry" />
        </mxCell>
        <mxCell id="eiah1D3wEuXbNWKUTs9p-69" value="" style="edgeStyle=elbowEdgeStyle;elbow=horizontal;align=left;verticalAlign=top;endArrow=open;endSize=8;strokeColor=#FF0000;endFill=1;rounded=0;entryX=0.5;entryY=0;entryDx=0;entryDy=0;" edge="1" parent="1" target="eiah1D3wEuXbNWKUTs9p-67">
          <mxGeometry x="-1" relative="1" as="geometry">
            <mxPoint x="290" y="544" as="targetPoint" />
            <mxPoint x="380" y="464" as="sourcePoint" />
            <Array as="points">
              <mxPoint x="290" y="524" />
              <mxPoint x="200" y="454" />
            </Array>
          </mxGeometry>
        </mxCell>
        <mxCell id="eiah1D3wEuXbNWKUTs9p-70" value="" style="edgeStyle=elbowEdgeStyle;elbow=horizontal;align=left;verticalAlign=top;endArrow=open;endSize=8;strokeColor=#FF0000;endFill=1;rounded=0;entryX=0.5;entryY=0;entryDx=0;entryDy=0;" edge="1" parent="1" target="eiah1D3wEuXbNWKUTs9p-68">
          <mxGeometry x="-1" relative="1" as="geometry">
            <mxPoint x="295" y="594" as="targetPoint" />
            <mxPoint x="380" y="464" as="sourcePoint" />
            <Array as="points">
              <mxPoint x="490" y="524" />
              <mxPoint x="210" y="464" />
            </Array>
          </mxGeometry>
        </mxCell>
        <mxCell id="eiah1D3wEuXbNWKUTs9p-71" value="" style="edgeStyle=elbowEdgeStyle;elbow=horizontal;align=left;verticalAlign=top;endArrow=open;endSize=8;strokeColor=#FF0000;endFill=1;rounded=0;entryX=0;entryY=0;entryDx=0;entryDy=0;exitX=0.439;exitY=1.036;exitDx=0;exitDy=0;exitPerimeter=0;" edge="1" parent="1" source="eiah1D3wEuXbNWKUTs9p-68" target="eiah1D3wEuXbNWKUTs9p-66">
          <mxGeometry x="-1" relative="1" as="geometry">
            <mxPoint x="505" y="594" as="targetPoint" />
            <mxPoint x="390" y="474" as="sourcePoint" />
            <Array as="points">
              <mxPoint x="495" y="664" />
              <mxPoint x="220" y="474" />
            </Array>
          </mxGeometry>
        </mxCell>
        <mxCell id="eiah1D3wEuXbNWKUTs9p-72" value="" style="edgeStyle=elbowEdgeStyle;elbow=horizontal;align=left;verticalAlign=top;endArrow=open;endSize=8;strokeColor=#FF0000;endFill=1;rounded=0;entryX=0;entryY=0.5;entryDx=0;entryDy=0;exitX=0.882;exitY=1.098;exitDx=0;exitDy=0;exitPerimeter=0;" edge="1" parent="1" source="eiah1D3wEuXbNWKUTs9p-67" target="eiah1D3wEuXbNWKUTs9p-66">
          <mxGeometry x="-1" relative="1" as="geometry">
            <mxPoint x="714.3933982822018" y="708.393398282202" as="targetPoint" />
            <mxPoint x="350" y="634" as="sourcePoint" />
            <Array as="points">
              <mxPoint x="350" y="704" />
              <mxPoint x="230" y="484" />
            </Array>
          </mxGeometry>
        </mxCell>
        <mxCell id="eiah1D3wEuXbNWKUTs9p-73" value="" style="edgeStyle=elbowEdgeStyle;elbow=horizontal;align=left;verticalAlign=top;endArrow=open;endSize=8;strokeColor=#FF0000;endFill=1;rounded=0;entryX=0;entryY=0;entryDx=0;entryDy=0;exitX=0.901;exitY=1.051;exitDx=0;exitDy=0;exitPerimeter=0;" edge="1" parent="1" source="eiah1D3wEuXbNWKUTs9p-55">
          <mxGeometry x="-1" relative="1" as="geometry">
            <mxPoint x="724.3933982822018" y="718.393398282202" as="targetPoint" />
            <mxPoint x="920" y="394" as="sourcePoint" />
            <Array as="points">
              <mxPoint x="930" y="564" />
              <mxPoint x="240" y="494" />
            </Array>
          </mxGeometry>
        </mxCell>
      </root>
    </mxGraphModel>
  </diagram>
</mxfile>
